{
  "next_page_url": "https://api.yachtbroker.org/prosearch?page=2",
  "per_page": 200,
  "total": "6850",
  "InputArguments": {
    "key": "xxxxxxxxxxxxxxxxxxxxxxxxxxx",
    "id": "xxxxxx",
    "limit": 200
  },
  "V-Data": [
    {
      "ID": 2766875,
      "StockNumber": "",
      "ListingOwnerID": 82344,
      "ListingOwnerName": "Taylor Cook",
      "ListingOwnerBrokerageID": 40000029,
      "Condition": "Used",
      "Status": "On",
      "Type": "Power",
      "Category": "Cruise Ship",
      "Year": 1990,
      "RefitYear": 0,
      "VesselName": "Aegean Paradise",
      "Manufacturer": "Custom",
      "Model": "ISHIKAWAJIMA Cruise Ship",
      "PriceUSD": 30000000,
      "PriceEuro": 26877090,
      "PriceCAD": 40211250,
      "PriceGBP": 23590470,
      "DisplayLengthFeet": 579,
      "DisplayLengthMeters": 176,
      "City": "",
      "State": "",
      "Country": "Greece",
      "FuelType": "Diesel",
      "DisplayPicture": "2766875_d845c20d.jpg"
    },
    {
      "ID": 2721797,
      "StockNumber": "",
      "ListingOwnerID": 81003,
      "ListingOwnerName": "Stephen Faraldo",
      "ListingOwnerBrokerageID": 40000073,
      "Condition": "Used",
      "Status": "On",
      "Type": "Power",
      "Category": "Motor Yachts",
      "Year": 2014,
      "RefitYear": 0,
      "VesselName": "ME",
      "Manufacturer": "IAG",
      "Model": "Primadonna",
      "PriceUSD": 8995000,
      "PriceEuro": 8058647,
      "PriceCAD": 12056673,
      "PriceGBP": 7073209,
      "DisplayLengthFeet": 127,
      "DisplayLengthMeters": 38,
      "City": "Dania Beach",
      "State": "Florida",
      "Country": "United States",
      "FuelType": "Diesel",
      "DisplayPicture": "6679488_7b09aa82_1.jpg"
    }
  ],
  "error": "",
  "MetaData": {
    "RequestTimestamp": "2019-11-24T20:12:03.000000Z",
    "ResponseTimestamp": "2019-11-24T20:12:03.000000Z",
    "ResponseGenerationTimeSeconds": 0.0087249279022217,
    "ResponseSizeKB": 104.7880859375
  }
}
