{
  "current_page": 1,
  "first_page_url": "https://api.yachtbroker.org/vessel?page=1",
  "from": 1,
  "last_page": 457,
  "last_page_url": "https://api.yachtbroker.org/vessel?page=457",
  "next_page_url": "https://api.yachtbroker.org/vessel?page=2",
  "path": "https://api.yachtbroker.org/vessel",
  "per_page": 15,
  "prev_page_url": null,
  "to": 15,
  "total": 6849,
  "InputArguments": {
    "key": "xxxxxxxxxxxxxxxxxxxxxx",
    "id": "xxxxxx",
    "limit": 15
  },
  "V-Data": [
    {
      "ID": 2766875,
      "ListingOwnerID": 82344,
      "ListingOwnerName": "Taylor Cook",
      "ListingOwnerEmail": "Taylor.Cook@AmericanYachts.com",
      "ListingOwnerBrokerageID": 40000029,
      "SecondaryListingOwnerID": null,
      "ListingOwnerBrokerageName": "American Marine Yachts",
      "ListingOwnerOfficeID": 60000517,
      "SecondaryListingOwnerName": null,
      "SecondaryListingOwnerBrokerageID": null,
      "SecondaryListingOwnerBrokerageName": null,
      "SecondaryListingOwnerOfficeID": null,
      "ThirdListingOwnerID": null,
      "ThirdListingOwnerName": null,
      "ThirdListingOwnerBrokerageID": null,
      "ThirdListingOwnerBrokerageName": null,
      "ThirdListingOwnerOfficeID": null,
      "Type": "Power",
      "Status": "On",
      "ListingDate": null,
      "Model": "ISHIKAWAJIMA Cruise Ship",
      "VesselName": "Aegean Paradise",
      "PriceUSD": 30000000,
      "PriceEuro": 26877090,
      "PriceCAD": 40211250,
      "PriceGBP": 23590470,
      "MSRP": null,
      "LOAFeet": 579,
      "LOAInch": null,
      "LOAMeters": "176.48",
      "DisplayLengthFeet": 579,
      "DisplayLengthMeters": "176.48",
      "City": null,
      "Zip": null,
      "Country": "Greece",
      "State": null,
      "Manufacturer": "Custom",
      "Category": "Cruise Ship",
      "Subcategory": "Trawlers",
      "Stabilizers": "None",
      "StabilizerBrand": null,
      "Elevator": "No",
      "ElevatorDecks": null,
      "Trailer": "No",
      "TrailerDesignation": null,
      "TrailerType": null,
      "TrailerManufacturer": null,
      "TrailerBrand": null,
      "TrailerYear": null,
      "TrailerModel": null,
      "TrailerSerialNo": null,
      "TrailerAxels": null,
      "SeaKeeper": "No",
      "Year": 1990,
      "ShareType": "Available for Co-Brokerage",
      "FuelType": "Diesel",
      "Currency": "USD",
      "CurrencySymbol": "$",
      "PriceHidden": false,
      "DocumentedYear": null,
      "RefitYear": null,
      "HullIdentificationNumber": null,
      "StockNumber": null,
      "Classification": null,
      "NextMajorClassInspectionDate": null,
      "Tower": "No",
      "FractionalSharesAvailable": null,
      "Designer": null,
      "Builder": null,
      "InteriorDesigner": null,
      "ExteriorDesigner": null,
      "NavalDesigner": null,
      "InteriorColor": null,
      "ExteriorColor": null,
      "Helideck": null,
      "Flag": "Panama",
      "RegistryPort": null,
      "HullMaterial": "Steel",
      "HullFinish": null,
      "HullShape": null,
      "HullWarranty": null,
      "HullWarrantyDate": null,
      "SuperStructureMaterial": null,
      "SpecialOffer": "No",
      "FactoryDemo": "No",
      "MaximumSpeed": null,
      "CruiseSpeed": null,
      "SpeedUnit": null,
      "RangeNMI": null,
      "MaximumDraftFeet": 28,
      "MaximumDraftInch": null,
      "MinimumDraftFeet": null,
      "MinimumDraftInch": null,
      "BeamFeet": 80,
      "BeamInch": null,
      "LODFeet": null,
      "LODInch": null,
      "BridgeClearanceFeet": null,
      "BridgeClearanceInch": null,
      "LWLFeet": 516,
      "LWLInch": null,
      "CabinCount": null,
      "SleepCount": null,
      "FullBeamMaster": "No",
      "OnDeckMaster": "No",
      "SingleBerthCount": null,
      "DoubleBerthCount": null,
      "QueenBerthCount": null,
      "KingBerthCount": null,
      "TwinBerthCount": null,
      "VBerthCount": null,
      "PullmanQty": null,
      "ConvertibleQty": null,
      "SeatingCapacity": null,
      "MaxPassengers": null,
      "HeadCount": null,
      "CrewHeadCount": null,
      "CrewCabinCount": null,
      "CaptainsQuarters": "No",
      "CrewSleepCount": null,
      "CrewMessCount": null,
      "HeadRoomFeet": null,
      "HeadRoomInch": null,
      "FuelTankCapacityGallons": null,
      "FuelTankCapacityLiters": null,
      "FreshWaterCapacityGallons": null,
      "FreshWaterCapacityLiters": null,
      "HoldingTankCapacityGallons": null,
      "HoldingTankCapacityLiters": null,
      "GrossTonnage": null,
      "Displacement": null,
      "DisplacementType": null,
      "Deadrise": null,
      "DryWeight": null,
      "NotableUpgrades": null,
      "PriceHeadline": null,
      "Description": "<p><em> </em><strong><em>Aegean Paradise</em></strong> is a cruise ship operated by Turkish tour operator. She was built in 1990 in Japan as three-stars-plus ship for Japan Cruise Line&nbsp;as <em>Orient Venus</em> which was used mainly on Japanese market.</p><p>&nbsp;</p><p>The ship was sold to&nbsp;First Cruise Line&nbsp;and renamed <em>Cruise One</em> in September 2005. The ship was rebuilt around 2006 in Greece to a four-star ship. In April 2007, the ship was chartered to Delphin Kreuzfahrten and renamed <em>Delphin Voyager</em>. During the renovation in Greece, she was significantly modified from original.</p><p>&nbsp;</p><p>Due to the insolvency of Delphin Kreuzfahrten in October 2010, ship was not returned. The owner of the ship, took First Cruise One Corp., the daughter of Greek company Restis Group, the ship returned to Greece, where it was at Perama on roadstead, before it was chartered for next few months in China in 2011. From January 2011 ship was chartered by Chinese investor group Hainan Cruises Enterprises under name <em>Hainan Empress</em> which was ended in May 2011. The ship was been chartered to Quail/Happy Cruises under name <em>Happy Dolphin</em>. Since the bankruptcy of Quail in 2011, <em>Happy Dolphin</em> has been laid up in Piraeus. She has been chartered for the 2012 summer season to a Turkish tour operator etstur and was renamed to <em>Aegean Paradise</em>. She cruised from İzmir and was cruised 2, 3 and 4 nights to the Greek Islands for the first time. At the end of August she will be deployed to Istanbul where she will do 3, 5, 6 and 7-night cruises to the Greek Islands and to the Black Sea. The season will end at the 28th September when the ship arrives to Istanbul.</p><p>After vsl completed summer season trading Med Sea Cruises, she is now inspectable Central Med upon arrgt.. </p><p>Owners are keen Sellers. Can fully guide </p>",
      "Summary": "Aegean Paradise is a cruise ship operated by Turkish tour operator. She was built in 1990 in Japan as three-stars-plus ship for Japan Cruise Line as Orient Venus which was used mainly on Japanese market. The ship was sold to First Cruise Line and renamed Cruise One in September 2005.",
      "Tenders": null,
      "Included_Toys": null,
      "Condition": "Used",
      "ConceptBoat": "No",
      "LastPriceChange": {
        "OldPrice": 0,
        "NewPrice": 30000000,
        "Currency": "USD",
        "DateTime": "2019-06-18T16:30:24.000000Z"
      },
      "CECertified": null,
      "MCACertified": null,
      "Imported": null,
      "TaxStatus": null,
      "SignedListingAgreement": "Yes",
      "SaleInUSWaters": "Yes",
      "BowThrusters": "No",
      "SternThrusters": "No",
      "AC": "No",
      "Features": [],
      "ListingType": "Central/Exclusive",
      "TradeIn": "No",
      "InStock": "No",
      "DisplayPicture": {
        "ID": 1174201,
        "HD": "https://media.iyba.pro/images/highdef/2766875_d845c20d.jpg",
        "Thumbnail": "https://media.iyba.pro/images/thumbnails/2766875_d845c20d.jpg",
        "Medium": "https://media.iyba.pro/images/medium/2766875_d845c20d.jpg",
        "Large": "https://media.iyba.pro/images/2766875_d845c20d.jpg",
        "Title": null,
        "Description": null,
        "CreatedTimestamp": "2019-06-18T16:30:25.000000Z",
        "UpdatedTimestamp": "2019-06-18T16:30:25.000000Z"
      },
      "CreatedTimestamp": "2019-06-18 16:30:24",
      "UpdatedTimestamp": "2019-11-04 11:10:29",
      "CustomFields": [],
      "Events": []
    }
  ],
  "MetaData": {
    "RequestTimestamp": "2019-11-24T16:16:59.000000Z",
    "ResponseTimestamp": "2019-11-24T16:16:59.000000Z",
    "ResponseGenerationTimeSeconds": 0.0081429481506348,
    "ResponseSizeKB": 76.84375
  }
}
